{
  "project_info": {
    "project_number": "60004925066",
    "firebase_url": "https://gerenceapp.firebaseio.com",
    "project_id": "gerenceapp",
    "storage_bucket": "gerenceapp.appspot.com"
  },
  "client": [
    {
      "client_info": {
        "mobilesdk_app_id": "1:60004925066:android:0846be682c267e09",
        "android_client_info": {
          "package_name": "com.example.adriel.gerenceapp"
        }
      },
      "oauth_client": [
        {
          "client_id": "60004925066-a413kk59mvl7i0gem6j0kkmj7qktpcjv.apps.googleusercontent.com",
          "client_type": 1,
          "android_info": {
            "package_name": "com.example.adriel.gerenceapp",
            "certificate_hash": "a7b344256dc14922d3e1bfa33875658f91c9a759"
          }
        },
        {
          "client_id": "60004925066-0ta3pbf2ke766rvm9152sneko7vhnrv5.apps.googleusercontent.com",
          "client_type": 3
        }
      ],
      "api_key": [
        {
          "current_key": "AIzaSyBJbZ4f9JgPFWPfgorbev0-ee-Nu6JPWOw"
        }
      ],
      "services": {
        "analytics_service": {
          "status": 1
        },
        "appinvite_service": {
          "status": 2,
          "other_platform_oauth_client": [
            {
              "client_id": "60004925066-0ta3pbf2ke766rvm9152sneko7vhnrv5.apps.googleusercontent.com",
              "client_type": 3
            }
          ]
        },
        "ads_service": {
          "status": 2
        }
      }
    }
  ],
  "configuration_version": "1"
}